-20.5661093728485582
  0.0000000000000000
  0.0000000000000000
  0.0000000000000000
  0.0000000000000000
  0.0000000000000000
  0.0000000000000000
  0.0000000000000000
  0.0000000000000000
  0.0000000000000000
  0.0000000000000000
  0.0000000000000000
  0.0000000000000000
  0.0000000000000000
  0.0000000000000000
  0.0000000000000000
  0.0000000000000000
  0.0000000000000000
  0.0000000000000000
  0.0000000000000000
  0.0000000000000000
  0.0000000000000000
  0.0000000000000000
  0.0000000000000000
  0.0000000000000000
  0.0000000000000000
  0.0000000000000000
  0.0000000000000000
  0.0000000000000000
  0.0000000000000000
  0.0000000000000000
  0.0000000000000000
 -1.3531703108156035
  0.0000000000000000
  0.0000000000000000
  0.0000000000000000
  0.0000000000000000
  0.0000000000000000
  0.0000000000000000
  0.0000000000000000
  0.0000000000000000
  0.0000000000000000
  0.0000000000000000
  0.0000000000000000
  0.0000000000000000
  0.0000000000000000
  0.0000000000000000
  0.0000000000000000
  0.0000000000000000
  0.0000000000000000
  0.0000000000000000
  0.0000000000000000
  0.0000000000000000
  0.0000000000000000
  0.0000000000000000
  0.0000000000000000
  0.0000000000000000
  0.0000000000000000
  0.0000000000000000
  0.0000000000000000
  0.0000000000000000
  0.0000000000000000
  0.0000000000000000
  0.0000000000000000
 -0.7190467703915863
  0.0000000000000000
  0.0000000000000000
  0.0000000000000000
  0.0000000000000000
  0.0000000000000000
  0.0000000000000000
  0.0000000000000000
  0.0000000000000000
  0.0000000000000000
  0.0000000000000000
  0.0000000000000000
  0.0000000000000000
  0.0000000000000000
  0.0000000000000000
  0.0000000000000000
  0.0000000000000000
  0.0000000000000000
  0.0000000000000000
  0.0000000000000000
  0.0000000000000000
  0.0000000000000000
  0.0000000000000000
  0.0000000000000000
  0.0000000000000000
  0.0000000000000000
  0.0000000000000000
  0.0000000000000000
  0.0000000000000000
  0.0000000000000000
  0.0000000000000000
  0.0000000000000000
 -0.5855405752079831
  0.0000000000000000
  0.0000000000000000
  0.0000000000000000
  0.0000000000000000
  0.0000000000000000
  0.0000000000000000
  0.0000000000000000
  0.0000000000000000
  0.0000000000000000
  0.0000000000000000
  0.0000000000000000
  0.0000000000000000
  0.0000000000000000
  0.0000000000000000
  0.0000000000000000
  0.0000000000000000
  0.0000000000000000
  0.0000000000000000
  0.0000000000000000
  0.0000000000000000
  0.0000000000000000
  0.0000000000000000
  0.0000000000000000
  0.0000000000000000
  0.0000000000000000
  0.0000000000000000
  0.0000000000000000
  0.0000000000000000
  0.0000000000000000
  0.0000000000000000
  0.0000000000000000
 -0.5096098195618054
  0.0000000000000000
  0.0000000000000000
  0.0000000000000000
  0.0000000000000000
  0.0000000000000000
  0.0000000000000000
  0.0000000000000000
  0.0000000000000000
  0.0000000000000000
  0.0000000000000000
  0.0000000000000000
  0.0000000000000000
  0.0000000000000000
  0.0000000000000000
  0.0000000000000000
  0.0000000000000000
  0.0000000000000000
  0.0000000000000000
  0.0000000000000000
  0.0000000000000000
  0.0000000000000000
  0.0000000000000000
  0.0000000000000000
  0.0000000000000000
  0.0000000000000000
  0.0000000000000000
  0.0000000000000000
  0.0000000000000000
  0.0000000000000000
  0.0000000000000000
  0.0000000000000000
  0.1183842772081918
  0.0000000000000000
  0.0000000000000000
  0.0000000000000000
  0.0000000000000000
  0.0000000000000000
  0.0000000000000000
  0.0000000000000000
  0.0000000000000000
  0.0000000000000000
  0.0000000000000000
  0.0000000000000000
  0.0000000000000000
  0.0000000000000000
  0.0000000000000000
  0.0000000000000000
  0.0000000000000000
  0.0000000000000000
  0.0000000000000000
  0.0000000000000000
  0.0000000000000000
  0.0000000000000000
  0.0000000000000000
  0.0000000000000000
  0.0000000000000000
  0.0000000000000000
  0.0000000000000000
  0.0000000000000000
  0.0000000000000000
  0.0000000000000000
  0.0000000000000000
  0.0000000000000000
  0.1925168523789640
  0.0000000000000000
  0.0000000000000000
  0.0000000000000000
  0.0000000000000000
  0.0000000000000000
  0.0000000000000000
  0.0000000000000000
  0.0000000000000000
  0.0000000000000000
  0.0000000000000000
  0.0000000000000000
  0.0000000000000000
  0.0000000000000000
  0.0000000000000000
  0.0000000000000000
  0.0000000000000000
  0.0000000000000000
  0.0000000000000000
  0.0000000000000000
  0.0000000000000000
  0.0000000000000000
  0.0000000000000000
  0.0000000000000000
  0.0000000000000000
  0.0000000000000000
  0.0000000000000000
  0.0000000000000000
  0.0000000000000000
  0.0000000000000000
  0.0000000000000000
  0.0000000000000000
  0.5502506987520281
  0.0000000000000000
  0.0000000000000000
  0.0000000000000000
  0.0000000000000000
  0.0000000000000000
  0.0000000000000000
  0.0000000000000000
  0.0000000000000000
  0.0000000000000000
  0.0000000000000000
  0.0000000000000000
  0.0000000000000000
  0.0000000000000000
  0.0000000000000000
  0.0000000000000000
  0.0000000000000000
  0.0000000000000000
  0.0000000000000000
  0.0000000000000000
  0.0000000000000000
  0.0000000000000000
  0.0000000000000000
  0.0000000000000000
  0.0000000000000000
  0.0000000000000000
  0.0000000000000000
  0.0000000000000000
  0.0000000000000000
  0.0000000000000000
  0.0000000000000000
  0.0000000000000000
  0.5836829575411814
  0.0000000000000000
  0.0000000000000000
  0.0000000000000000
  0.0000000000000000
  0.0000000000000000
  0.0000000000000000
  0.0000000000000000
  0.0000000000000000
  0.0000000000000000
  0.0000000000000000
  0.0000000000000000
  0.0000000000000000
  0.0000000000000000
  0.0000000000000000
  0.0000000000000000
  0.0000000000000000
  0.0000000000000000
  0.0000000000000000
  0.0000000000000000
  0.0000000000000000
  0.0000000000000000
  0.0000000000000000
  0.0000000000000000
  0.0000000000000000
  0.0000000000000000
  0.0000000000000000
  0.0000000000000000
  0.0000000000000000
  0.0000000000000000
  0.0000000000000000
  0.0000000000000000
  0.7482718924590286
  0.0000000000000000
  0.0000000000000000
  0.0000000000000000
  0.0000000000000000
  0.0000000000000000
  0.0000000000000000
  0.0000000000000000
  0.0000000000000000
  0.0000000000000000
  0.0000000000000000
  0.0000000000000000
  0.0000000000000000
  0.0000000000000000
  0.0000000000000000
  0.0000000000000000
  0.0000000000000000
  0.0000000000000000
  0.0000000000000000
  0.0000000000000000
  0.0000000000000000
  0.0000000000000000
  0.0000000000000000
  0.0000000000000000
  0.0000000000000000
  0.0000000000000000
  0.0000000000000000
  0.0000000000000000
  0.0000000000000000
  0.0000000000000000
  0.0000000000000000
  0.0000000000000000
  0.7982810933548636
  0.0000000000000000
  0.0000000000000000
  0.0000000000000000
  0.0000000000000000
  0.0000000000000000
  0.0000000000000000
  0.0000000000000000
  0.0000000000000000
  0.0000000000000000
  0.0000000000000000
  0.0000000000000000
  0.0000000000000000
  0.0000000000000000
  0.0000000000000000
  0.0000000000000000
  0.0000000000000000
  0.0000000000000000
  0.0000000000000000
  0.0000000000000000
  0.0000000000000000
  0.0000000000000000
  0.0000000000000000
  0.0000000000000000
  0.0000000000000000
  0.0000000000000000
  0.0000000000000000
  0.0000000000000000
  0.0000000000000000
  0.0000000000000000
  0.0000000000000000
  0.0000000000000000
  0.9277766824525007
  0.0000000000000000
  0.0000000000000000
  0.0000000000000000
  0.0000000000000000
  0.0000000000000000
  0.0000000000000000
  0.0000000000000000
  0.0000000000000000
  0.0000000000000000
  0.0000000000000000
  0.0000000000000000
  0.0000000000000000
  0.0000000000000000
  0.0000000000000000
  0.0000000000000000
  0.0000000000000000
  0.0000000000000000
  0.0000000000000000
  0.0000000000000000
  0.0000000000000000
  0.0000000000000000
  0.0000000000000000
  0.0000000000000000
  0.0000000000000000
  0.0000000000000000
  0.0000000000000000
  0.0000000000000000
  0.0000000000000000
  0.0000000000000000
  0.0000000000000000
  0.0000000000000000
  0.9976550616728520
  0.0000000000000000
  0.0000000000000000
  0.0000000000000000
  0.0000000000000000
  0.0000000000000000
  0.0000000000000000
  0.0000000000000000
  0.0000000000000000
  0.0000000000000000
  0.0000000000000000
  0.0000000000000000
  0.0000000000000000
  0.0000000000000000
  0.0000000000000000
  0.0000000000000000
  0.0000000000000000
  0.0000000000000000
  0.0000000000000000
  0.0000000000000000
  0.0000000000000000
  0.0000000000000000
  0.0000000000000000
  0.0000000000000000
  0.0000000000000000
  0.0000000000000000
  0.0000000000000000
  0.0000000000000000
  0.0000000000000000
  0.0000000000000000
  0.0000000000000000
  0.0000000000000000
  1.0172573639257259
  0.0000000000000000
  0.0000000000000000
  0.0000000000000000
  0.0000000000000000
  0.0000000000000000
  0.0000000000000000
  0.0000000000000000
  0.0000000000000000
  0.0000000000000000
  0.0000000000000000
  0.0000000000000000
  0.0000000000000000
  0.0000000000000000
  0.0000000000000000
  0.0000000000000000
  0.0000000000000000
  0.0000000000000000
  0.0000000000000000
  0.0000000000000000
  0.0000000000000000
  0.0000000000000000
  0.0000000000000000
  0.0000000000000000
  0.0000000000000000
  0.0000000000000000
  0.0000000000000000
  0.0000000000000000
  0.0000000000000000
  0.0000000000000000
  0.0000000000000000
  0.0000000000000000
  1.2114005448378751
  0.0000000000000000
  0.0000000000000000
  0.0000000000000000
  0.0000000000000000
  0.0000000000000000
  0.0000000000000000
  0.0000000000000000
  0.0000000000000000
  0.0000000000000000
  0.0000000000000000
  0.0000000000000000
  0.0000000000000000
  0.0000000000000000
  0.0000000000000000
  0.0000000000000000
  0.0000000000000000
  0.0000000000000000
  0.0000000000000000
  0.0000000000000000
  0.0000000000000000
  0.0000000000000000
  0.0000000000000000
  0.0000000000000000
  0.0000000000000000
  0.0000000000000000
  0.0000000000000000
  0.0000000000000000
  0.0000000000000000
  0.0000000000000000
  0.0000000000000000
  0.0000000000000000
  1.2831510260651757
  0.0000000000000000
  0.0000000000000000
  0.0000000000000000
  0.0000000000000000
  0.0000000000000000
  0.0000000000000000
  0.0000000000000000
  0.0000000000000000
  0.0000000000000000
  0.0000000000000000
  0.0000000000000000
  0.0000000000000000
  0.0000000000000000
  0.0000000000000000
  0.0000000000000000
  0.0000000000000000
  0.0000000000000000
  0.0000000000000000
  0.0000000000000000
  0.0000000000000000
  0.0000000000000000
  0.0000000000000000
  0.0000000000000000
  0.0000000000000000
  0.0000000000000000
  0.0000000000000000
  0.0000000000000000
  0.0000000000000000
  0.0000000000000000
  0.0000000000000000
  0.0000000000000000
  1.6003253558514705
  0.0000000000000000
  0.0000000000000000
  0.0000000000000000
  0.0000000000000000
  0.0000000000000000
  0.0000000000000000
  0.0000000000000000
  0.0000000000000000
  0.0000000000000000
  0.0000000000000000
  0.0000000000000000
  0.0000000000000000
  0.0000000000000000
  0.0000000000000000
  0.0000000000000000
  0.0000000000000000
  0.0000000000000000
  0.0000000000000000
  0.0000000000000000
  0.0000000000000000
  0.0000000000000000
  0.0000000000000000
  0.0000000000000000
  0.0000000000000000
  0.0000000000000000
  0.0000000000000000
  0.0000000000000000
  0.0000000000000000
  0.0000000000000000
  0.0000000000000000
  0.0000000000000000
  1.9951670004661368
  0.0000000000000000
  0.0000000000000000
  0.0000000000000000
  0.0000000000000000
  0.0000000000000000
  0.0000000000000000
  0.0000000000000000
  0.0000000000000000
  0.0000000000000000
  0.0000000000000000
  0.0000000000000000
  0.0000000000000000
  0.0000000000000000
  0.0000000000000000
  0.0000000000000000
  0.0000000000000000
  0.0000000000000000
  0.0000000000000000
  0.0000000000000000
  0.0000000000000000
  0.0000000000000000
  0.0000000000000000
  0.0000000000000000
  0.0000000000000000
  0.0000000000000000
  0.0000000000000000
  0.0000000000000000
  0.0000000000000000
  0.0000000000000000
  0.0000000000000000
  0.0000000000000000
  2.0392551446077767
  0.0000000000000000
  0.0000000000000000
  0.0000000000000000
  0.0000000000000000
  0.0000000000000000
  0.0000000000000000
  0.0000000000000000
  0.0000000000000000
  0.0000000000000000
  0.0000000000000000
  0.0000000000000000
  0.0000000000000000
  0.0000000000000000
  0.0000000000000000
  0.0000000000000000
  0.0000000000000000
  0.0000000000000000
  0.0000000000000000
  0.0000000000000000
  0.0000000000000000
  0.0000000000000000
  0.0000000000000000
  0.0000000000000000
  0.0000000000000000
  0.0000000000000000
  0.0000000000000000
  0.0000000000000000
  0.0000000000000000
  0.0000000000000000
  0.0000000000000000
  0.0000000000000000
  3.0552077176707448
  0.0000000000000000
  0.0000000000000000
  0.0000000000000000
  0.0000000000000000
  0.0000000000000000
  0.0000000000000000
  0.0000000000000000
  0.0000000000000000
  0.0000000000000000
  0.0000000000000000
  0.0000000000000000
  0.0000000000000000
  0.0000000000000000
  0.0000000000000000
  0.0000000000000000
  0.0000000000000000
  0.0000000000000000
  0.0000000000000000
  0.0000000000000000
  0.0000000000000000
  0.0000000000000000
  0.0000000000000000
  0.0000000000000000
  0.0000000000000000
  0.0000000000000000
  0.0000000000000000
  0.0000000000000000
  0.0000000000000000
  0.0000000000000000
  0.0000000000000000
  0.0000000000000000
  3.0912746149417298
  0.0000000000000000
  0.0000000000000000
  0.0000000000000000
  0.0000000000000000
  0.0000000000000000
  0.0000000000000000
  0.0000000000000000
  0.0000000000000000
  0.0000000000000000
  0.0000000000000000
  0.0000000000000000
  0.0000000000000000
  0.0000000000000000
  0.0000000000000000
  0.0000000000000000
  0.0000000000000000
  0.0000000000000000
  0.0000000000000000
  0.0000000000000000
  0.0000000000000000
  0.0000000000000000
  0.0000000000000000
  0.0000000000000000
  0.0000000000000000
  0.0000000000000000
  0.0000000000000000
  0.0000000000000000
  0.0000000000000000
  0.0000000000000000
  0.0000000000000000
  0.0000000000000000
  3.1140109449735376
  0.0000000000000000
  0.0000000000000000
  0.0000000000000000
  0.0000000000000000
  0.0000000000000000
  0.0000000000000000
  0.0000000000000000
  0.0000000000000000
  0.0000000000000000
  0.0000000000000000
  0.0000000000000000
  0.0000000000000000
  0.0000000000000000
  0.0000000000000000
  0.0000000000000000
  0.0000000000000000
  0.0000000000000000
  0.0000000000000000
  0.0000000000000000
  0.0000000000000000
  0.0000000000000000
  0.0000000000000000
  0.0000000000000000
  0.0000000000000000
  0.0000000000000000
  0.0000000000000000
  0.0000000000000000
  0.0000000000000000
  0.0000000000000000
  0.0000000000000000
  0.0000000000000000
  3.2902231659644565
  0.0000000000000000
  0.0000000000000000
  0.0000000000000000
  0.0000000000000000
  0.0000000000000000
  0.0000000000000000
  0.0000000000000000
  0.0000000000000000
  0.0000000000000000
  0.0000000000000000
  0.0000000000000000
  0.0000000000000000
  0.0000000000000000
  0.0000000000000000
  0.0000000000000000
  0.0000000000000000
  0.0000000000000000
  0.0000000000000000
  0.0000000000000000
  0.0000000000000000
  0.0000000000000000
  0.0000000000000000
  0.0000000000000000
  0.0000000000000000
  0.0000000000000000
  0.0000000000000000
  0.0000000000000000
  0.0000000000000000
  0.0000000000000000
  0.0000000000000000
  0.0000000000000000
  3.7888617194513183
  0.0000000000000000
  0.0000000000000000
  0.0000000000000000
  0.0000000000000000
  0.0000000000000000
  0.0000000000000000
  0.0000000000000000
  0.0000000000000000
  0.0000000000000000
  0.0000000000000000
  0.0000000000000000
  0.0000000000000000
  0.0000000000000000
  0.0000000000000000
  0.0000000000000000
  0.0000000000000000
  0.0000000000000000
  0.0000000000000000
  0.0000000000000000
  0.0000000000000000
  0.0000000000000000
  0.0000000000000000
  0.0000000000000000
  0.0000000000000000
  0.0000000000000000
  0.0000000000000000
  0.0000000000000000
  0.0000000000000000
  0.0000000000000000
  0.0000000000000000
  0.0000000000000000
  3.8070553646664735
  0.0000000000000000
  0.0000000000000000
  0.0000000000000000
  0.0000000000000000
  0.0000000000000000
  0.0000000000000000
  0.0000000000000000
  0.0000000000000000
  0.0000000000000000
  0.0000000000000000
  0.0000000000000000
  0.0000000000000000
  0.0000000000000000
  0.0000000000000000
  0.0000000000000000
  0.0000000000000000
  0.0000000000000000
  0.0000000000000000
  0.0000000000000000
  0.0000000000000000
  0.0000000000000000
  0.0000000000000000
  0.0000000000000000
  0.0000000000000000
  0.0000000000000000
  0.0000000000000000
  0.0000000000000000
  0.0000000000000000
  0.0000000000000000
  0.0000000000000000
  0.0000000000000000
  4.3881790710569968
  0.0000000000000000
  0.0000000000000000
  0.0000000000000000
  0.0000000000000000
  0.0000000000000000
  0.0000000000000000
  0.0000000000000000
  0.0000000000000000
  0.0000000000000000
  0.0000000000000000
  0.0000000000000000
  0.0000000000000000
  0.0000000000000000
  0.0000000000000000
  0.0000000000000000
  0.0000000000000000
  0.0000000000000000
  0.0000000000000000
  0.0000000000000000
  0.0000000000000000
  0.0000000000000000
  0.0000000000000000
  0.0000000000000000
  0.0000000000000000
  0.0000000000000000
  0.0000000000000000
  0.0000000000000000
  0.0000000000000000
  0.0000000000000000
  0.0000000000000000
  0.0000000000000000
  4.8226160229901724
  0.0000000000000000
  0.0000000000000000
  0.0000000000000000
  0.0000000000000000
  0.0000000000000000
  0.0000000000000000
  0.0000000000000000
  0.0000000000000000
  0.0000000000000000
  0.0000000000000000
  0.0000000000000000
  0.0000000000000000
  0.0000000000000000
  0.0000000000000000
  0.0000000000000000
  0.0000000000000000
  0.0000000000000000
  0.0000000000000000
  0.0000000000000000
  0.0000000000000000
  0.0000000000000000
  0.0000000000000000
  0.0000000000000000
  0.0000000000000000
  0.0000000000000000
  0.0000000000000000
  0.0000000000000000
  0.0000000000000000
  0.0000000000000000
  0.0000000000000000
  0.0000000000000000
  5.8565618872168184
  0.0000000000000000
  0.0000000000000000
  0.0000000000000000
  0.0000000000000000
  0.0000000000000000
  0.0000000000000000
  0.0000000000000000
  0.0000000000000000
  0.0000000000000000
  0.0000000000000000
  0.0000000000000000
  0.0000000000000000
  0.0000000000000000
  0.0000000000000000
  0.0000000000000000
  0.0000000000000000
  0.0000000000000000
  0.0000000000000000
  0.0000000000000000
  0.0000000000000000
  0.0000000000000000
  0.0000000000000000
  0.0000000000000000
  0.0000000000000000
  0.0000000000000000
  0.0000000000000000
  0.0000000000000000
  0.0000000000000000
  0.0000000000000000
  0.0000000000000000
  0.0000000000000000
  6.2074552047887614
  0.0000000000000000
  0.0000000000000000
  0.0000000000000000
  0.0000000000000000
  0.0000000000000000
  0.0000000000000000
  0.0000000000000000
  0.0000000000000000
  0.0000000000000000
  0.0000000000000000
  0.0000000000000000
  0.0000000000000000
  0.0000000000000000
  0.0000000000000000
  0.0000000000000000
  0.0000000000000000
  0.0000000000000000
  0.0000000000000000
  0.0000000000000000
  0.0000000000000000
  0.0000000000000000
  0.0000000000000000
  0.0000000000000000
  0.0000000000000000
  0.0000000000000000
  0.0000000000000000
  0.0000000000000000
  0.0000000000000000
  0.0000000000000000
  0.0000000000000000
  0.0000000000000000
  6.8423969362306511
  0.0000000000000000
  0.0000000000000000
  0.0000000000000000
  0.0000000000000000
  0.0000000000000000
  0.0000000000000000
  0.0000000000000000
  0.0000000000000000
  0.0000000000000000
  0.0000000000000000
  0.0000000000000000
  0.0000000000000000
  0.0000000000000000
  0.0000000000000000
  0.0000000000000000
  0.0000000000000000
  0.0000000000000000
  0.0000000000000000
  0.0000000000000000
  0.0000000000000000
  0.0000000000000000
  0.0000000000000000
  0.0000000000000000
  0.0000000000000000
  0.0000000000000000
  0.0000000000000000
  0.0000000000000000
  0.0000000000000000
  0.0000000000000000
  0.0000000000000000
  0.0000000000000000
 39.6089309682674724
